{"bd":"\/home\/cdu16918\/public_html\/directorio\/wp-content\/uploads","fn":"header_interiorismo.png","xist":true}
{"bd":"\/home\/cdu16918\/public_html\/directorio\/wp-content\/uploads","fn":"header_web.png","xist":true}
{"bd":"\/home\/cdu16918\/public_html\/directorio\/wp-content\/uploads","fn":"header_institutos.png","xist":true}
{"bd":"\/home\/cdu16918\/public_html\/directorio\/wp-content\/uploads","fn":"header_grafico.png","xist":true}
{"bd":"\/home\/cdu16918\/public_html\/directorio\/wp-content\/uploads","fn":"header_producto.png","xist":true}
{"bd":"\/home\/cdu16918\/public_html\/directorio\/wp-content\/uploads","fn":"header_textil.png","xist":true}
{"bd":"\/home\/cdu16918\/public_html\/directorio\/wp-content\/uploads\/job_listings","fn":"logo.jpg","xist":true}
{"bd":"\/home\/cdu16918\/public_html\/directorio\/wp-content\/uploads\/job_listings","fn":"sintropia_dise\u00f1o.jpg","xist":true}
{"bd":"\/home\/cdu16918\/public_html\/directorio\/wp-content\/uploads\/job_listings","fn":"logo_cdu.jpg","xist":true}
